<?xml version="1.0" encoding="UTF-8"?>
<svg width="752pt" height="752pt" version="1.1" viewBox="0 0 752 752" xmlns="http://www.w3.org/2000/svg">
 <path d="m446.19 317.64c-4.5625 0-8.6758-2.75-10.422-6.9648-1.7461-4.2148-0.78125-9.0664 2.4453-12.293l0.79688-0.80078c4.4062-4.4023 11.547-4.4023 15.953 0 4.4062 4.4062 4.4062 11.547 0 15.953l-0.79688 0.79688v0.003906c-2.1133 2.1172-4.9844 3.3086-7.9766 3.3047zm71.797-83.074c-16.852-17.016-39.676-26.789-63.617-27.242-6.2305-0.10938-11.375 4.8477-11.484 11.078-0.11328 6.2305 4.8438 11.375 11.078 11.488 18.074 0.45312 35.281 7.8398 48.066 20.625 12.789 12.785 20.172 29.996 20.629 48.07 0.10938 6.1484 5.125 11.074 11.277 11.078h0.21094-0.003907c6.2305-0.11719 11.188-5.2578 11.078-11.484-0.45312-23.941-10.223-46.762-27.234-63.613zm-73.902 14.066c-2.9883 0.1875-5.7773 1.5547-7.7578 3.8008-1.9805 2.2422-2.9883 5.1836-2.8008 8.1719 0.19141 2.9883 1.5586 5.7773 3.8047 7.7539 2.2461 1.9805 5.1875 2.9844 8.1758 2.793 9.7773-0.94141 19.465 2.5352 26.414 9.4805 6.9453 6.9453 10.422 16.637 9.4805 26.414-0.19141 2.9883 0.81641 5.9258 2.793 8.1719 1.9805 2.2422 4.7695 3.6094 7.7539 3.7969 0.24219 0.015625 0.48438 0.023438 0.72266 0.023438 5.9492-0.003907 10.875-4.6328 11.246-10.57 1.3516-16.246-4.5195-32.262-16.043-43.789-11.527-11.527-27.543-17.395-43.789-16.047zm22.168 104.8v45.129c0 6.2266-5.0508 11.277-11.281 11.281h-53.242l-3.5039 14.02v-0.003907c-1.2578 5.0234-5.7695 8.5469-10.945 8.5469h-47.598l-9.1445 36.582c-1.0352 4.1445-4.3281 7.3477-8.5 8.2734l-92.699 20.598v36.078c0 6.2305-5.0508 11.281-11.281 11.281-6.2305 0-11.281-5.0508-11.281-11.281v-315.88c0-6.2305 5.0508-11.281 11.281-11.281 6.2305 0 11.281 5.0508 11.281 11.281v256.7l80.996-18.004 6.0859-24.344-41.953 0.003906c-6.2305 0-11.281-5.0508-11.281-11.281v-90.254c0-6.2305 5.0508-11.281 11.281-11.281h135.38c3.4766 0 6.7539 1.6016 8.8906 4.3398 2.1406 2.7383 2.8984 6.3086 2.0547 9.6797l-2.1367 8.543h36.32c6.2305 0 11.281 5.0508 11.281 11.281zm-70.859-11.281h-109.64v67.688l92.723 0.003906zm48.293 22.562h-30.672l-5.6406 22.562h36.316z" fill="#2595be"/>
</svg>
